DEE_FILIAL|DEE_CODLAY|DEE_CODREG|DEE_SEQITE|DEE_SEQUEN|DEE_ALIAS|DEE_CAMPO|DEE_LAYTAM|DEE_LAYDEC|DEE_OBSERV|DEE_REGRA|DEE_VALID|DEE_POSICI|DEE_POSORD|DEE_POSCHV
  |CONEMB|CEM   |025|001|DTC|DTC_SERNFC|3|0|                                                                                |                                                                                                                                                                                                                                                              |                                                                                                                                |2|  |                                                                                                                                                                
  |CONEMB|CEM   |025|002|DTC|DTC_NUMNFC|8|0|                                                                                |IF(EMPTY(DTC->DTC_NUMNFC) .OR. IIF(EMPTY(DT6->DT6_DOCDCO),DT6->DT6_DOC+DT6->DT6_SERIE,DT6->DT6_DOCDCO+DT6->DT6_SERDCO) <> DTC->DTC_DOC+DTC->DTC_SERIE,"00000000",STRZERO(VAL(DTC->DTC_NUMNFC),8))                                                             |                                                                                                                                |2|  |                                                                                                                                                                
  |OCOREN|OEN   |003|001|DTC|DTC_SERNFC|3|0|SERIE DA NOTA FISCAL                                                            |                                                                                                                                                                                                                                                              |                                                                                                                                |2|  |                                                                                                                                                                
  |OCOREN|OEN   |003|002|DTC|DTC_NUMNFC|8|0|NUMERO DA NOTA FISCAL                                                           |STRZERO(VAL(DTC->DTC_NUMNFC),8)                                                                                                                                                                                                                               |                                                                                                                                |2|  |                                                                                                                                                                
  |OCOREN|OEN   |003|003|DUA|DUA_CODOCO|2|0|CODIGO DA OCORRENCIA NA ENTREGA                                                 |IF(!EMPTY(POSICIONE("DE6",1,XFILIAL("DE6")+DEC->DEC_CODCLI+DEC->DEC_LOJCLI+DUA->DUA_CODOCO,"DE6_OCOEMB")),DE6->DE6_OCOEMB,RIGHT(ALLTRIM(DUA->DUA_CODOCO),2))                                                                                                  |                                                                                                                                |2|  |                                                                                                                                                                
  |OCOREN|OEN   |003|004|DUA|DUA_DATOCO|8|0|DATA DA OCORRENCIA (DDMMAA)                                                     |U_EDICONVDAT(DUA->DUA_DATOCO,4)                                                                                                                                                                                                                               |                                                                                                                                |2|  |                                                                                                                                                                
  |OCOREN|OEN   |003|005|DUA|DUA_HOROCO|4|0|HORA INICIAL DA OCORRENCIA (HHMM)                                               |                                                                                                                                                                                                                                                              |                                                                                                                                |2|  |                                                                                                                                                                
  |OCOREN|OEN   |003|006|   |OBS OCORR.|2|0|01=DEV/RECUSA TOT, 02=DEV/RECUSA PARC OU 3=ACEITE/ENT ACORDO                    |IF(DUA->DUA_CODOCO <= "2","03","02")                                                                                                                                                                                                                          |                                                                                                                                |2|  |                                                                                                                                                                
  |OCOREN|OEN   |003|007|DUA|DUA_MOTIVO|70|0|TEXTO COMPLEMENTAR EXPLICATIVO                                                  |IF(MSMM(DUA->DUA_CODMOT)="",IF(!EMPTY(POSICIONE("DE6",1,XFILIAL("DE6")+DEC->DEC_CODCLI+DEC->DEC_LOJCLI+DUA->DUA_CODOCO,"DE6_OCOEMB")),DE6->DE6_DSCEMB,RIGHT(ALLTRIM(DUA->DUA_CODOCO),2)),MSMM(DUA->DUA_CODMOT))                                               |                                                                                                                                |2|  |                                                                                                                                                                
