||999999|01|FORNECEDOR GENERICO|FORNECEDOR GENERICO|GENERICO||CENTRO|SP||50308|SAO PAULO||||J||00000000000000||||||||||||||||||0|0.00|0.0|0.00|0|||0.00|0.0|0.00||||105|||||||||1||||||||||||2|||||||||||0.00|||||||||||0.00|||||||||0.00|2|N|N||||0.0000||||0.00||||2|||||1|1|1||||0||||||||||2||3||||||2||||||||||||||||||||||2|||||||||0|||||||||||
||INPS|01|INPS|INPS|INPS|||SP|||SAO PAULO||||J||00000000000000||||||||||||||||||0|0.00|0.0|0.00|0|||0.00|0.0|0.00|||||||||||||1||||||||||||2|||||||||||0.00|||||||||||0.00|||||||||0.00|2|N|N||||0.0000||||0.00||||2|||||1|1|1||||0||||||||||2||3||||||2||||||||||||||||||||||2|||||||||0|||||||||||
||SEST|01|SEST|SEST|SEST|||SP|||SAO PAULO||||J||00000000000000||||||||||||||||||0|0.00|0.0|0.00|0|||0.00|0.0|0.00|||||||||||||1||||||||||||2|||||||||||0.00|||||||||||0.00|||||||||0.00|2|N|N||||0.0000||||0.00||||2|||||1|1|1||||0||||||||||2||3||||||2||||||||||||||||||||||2|||||||||0|||||||||||
