|01|481|E|N|N|N|N|N|N|000|ENTRADA||0.00|0.00|N|N|N|N|N|N|S|N|N||N|N||S|S|N|S||N|N|B|1|0.00|2|0.00|1||4|3||0.00|0.00|2|1|2||2|2|1|2||2|||100.00|||||||||0.00||||||0.0000|||2|2||||2|2|N|0.00|0.00||1|2|0.00|0.00|2|||1|2|2|2|||||||1|0.00|||||1|0.00|||2|||2|2|2||2|1|0.0000|0.0000||0.00|0.00||||1|0.00||||2|0.00|3|2|0.00|0.00|||||||2|||2|2||2||||||1||||||2|0.00||1||||||0.00|||||||2|0.00|0||0.00||||1||0.00||||0.00|2|0.00|
|01|501|S|S|N|N|N|N|N|99943|TRANSPORTE ROD.||0.00|0.00|N|T|N|N|N|N|S|N|N||N|N||I|S|N|S||N|N|B|1|0.00|2|0.00|1||3|2||0.00|0.00|2|1|2||2|2|1|2||2|2||100.00|||TRANSPORTE INTERESTADUAL||||||0.00||||||0.0000|||2|2||||2|2|N|0.00|0.00||1|2|0.00|0.00|2|||1|2|2|2|||||||1|0.00|||||1|0.00|||2|||2|2|2||2|1|0.0000|0.0000||0.00|0.00||||1|0.00||||2|0.00|3|2|0.00|0.00|||||||2|||2|2||2||||||1||||||2|0.00||1||||||0.00|||||||2|0.00|0||0.00||||1||0.00||||0.00|2|0.00|
|01|502|S|N|N|N|N|N|N|99943|TRANSPORTE||0.00|0.00|N|T|N|N|N|N|S|N|N||N|N||S|S|N|S||N|N|B|1|0.00|2|0.00|1||4|3||0.00|0.00|2|1|2||2|2|1|2||2|||100.00|||TRANSPORTE INTERMUNICIPAL||||||0.00||||||0.0000|||2|2||||2|2|N|0.00|0.00||1|2|0.00|0.00|2|||1|2|2|2|||||||1|0.00|||||1|0.00|||2|||2|2|2||2|1|0.0000|0.0000||0.00|0.00||||1|0.00||||2|0.00|3|2|0.00|0.00|||||||2|||2|2||2||||||1||||||2|0.00||1||||||0.00|||||||2|0.00|0||0.00||||1||0.00||||0.00|2|0.00|
|01|981|S|N|N|N|N|N|N|000|SAIDA||0.00|0.00|N|N|N|N|N|N|S|N|N||N|N||S|S|N|S||N|N|B|1|0.00|2|0.00|1||4|3||0.00|0.00|2|1|2||2|2|1|2||2|||100.00|||||||||0.00||||||0.0000|||2|2||||2|2|N|0.00|0.00||1|2|0.00|0.00|2|||1|2|2|2|||||||1|0.00|||||1|0.00|||2|||2|2|2||2|1|0.0000|0.0000||0.00|0.00||||1|0.00||||2|0.00|3|2|0.00|0.00|||||||2|||2|2||2||||||1||||||2|0.00||1||||||0.00|||||||2|0.00|0||0.00||||1||0.00||||0.00|2|0.00|
