; SlavaSoft Optimizing Checksum Utility fsum 2.0 <www.slavasoft.com>
;
; Generated on 07/17/17 at 14:58:11 
;
31edaa59aff16baf8fefe23a6752c321 *Execut\relacao.txt
b99167a7771f381c83e4d370d6368619c4a57046 ?RIPEMD160*Execut\relacao.txt
e6206276fd086b5e7f8fe9912aaf5f3e *f.bat
dd796d743f46fbb6cdd2d32c545c62fcdda10c16 ?RIPEMD160*f.bat
9adf771b770a07b17319d2d95fb3f9eb *fsum.exe
51165e261f245ed71a39a1cb5202335f88f8b016 ?RIPEMD160*fsum.exe
DENIED       *****        relacao.txt
