{
    "openapi": "3.0.1",
    "servers": [
        {
            "description": "API para a entidade Endereço de Entrega do Cliente (CustomerShippingAddress) para produtos TOTVS",
            "url": "http://{serverUrl}:{serverHttpPort}/api/tms/v1",
            "variables": {
                "serverUrl": {
                    "default": "localhost"
                },
                "serverHttpPort": {
                    "default": "8080"
                }
            }
        }
    ],
    "info": {
        "description": "API para a entidade Endereço de Entrega do Cliente (CustomerShippingAddress) para produtos TOTVS",
        "version": "1.000",
        "title": "CustomerShippingAddress",
        "contact": {
            "name": "T-Talk",
            "url": "https://api.totvs.com.br",
            "email": "comiteintegracao@totvs.com.br"
        },
        "x-totvs": {
            "messageDocumentation": {
                "name": "CustomerShippingAddress",
                "description": "Cadastro para a entidade Endereço de Entrega do Cliente",
                "segment": "TMS"
            },
            "productInformation": [
                {
                    "product": "protheus",
                    "contact": "supply.ml.log.tms-operacional@totvs.com.br",
                    "description": "Cadastro de Endereço de Entrega do Cliente",
                    "adapter": "TMSA450I.prw"
                }
            ]
        }
    },
    "paths": {
        "/CustomerShippingAddress": {
            "get": {
                "tags": [
                    "CustomerShippingAddress"
                ],
                "summary": "Retorna lista de Endereços de Entrega do Cliente",
                "x-totvs": {
                    "productInformation": [
                        {
                            "product": "protheus",
                            "avaliable": true,
                            "note": "Este verbo está disponível com os parâmetros Authorization, Order, Page, PageSize e Fields",
                            "minimalVersion": "12.1.21"
                        }
                    ]
                },
                "description": "Retorna lista completa do Endereço de Entrega do Cliente",
                "operationId": "getCustomerShippingAddress",
                "parameters": [
                    {
                        "$ref": "https://raw.githubusercontent.com/totvs/ttalk-standard-message/master/jsonschema/apis/types/totvsApiTypesBase.json#/parameters/Authorization"
                    },
                    {
                        "$ref": "https://raw.githubusercontent.com/totvs/ttalk-standard-message/master/jsonschema/apis/types/totvsApiTypesBase.json#/parameters/Order"
                    },
                    {
                        "$ref": "https://raw.githubusercontent.com/totvs/ttalk-standard-message/master/jsonschema/apis/types/totvsApiTypesBase.json#/parameters/Page"
                    },
                    {
                        "$ref": "https://raw.githubusercontent.com/totvs/ttalk-standard-message/master/jsonschema/apis/types/totvsApiTypesBase.json#/parameters/PageSize"
                    },
                    {
                        "$ref": "https://raw.githubusercontent.com/totvs/ttalk-standard-message/master/jsonschema/apis/types/totvsApiTypesBase.json#/parameters/Fields"
                    }
                ],
                "responses": {
                    "200": {
                        "description": "operação realizada com sucesso!",
                        "content": {
                            "application/json": {
                                "schema": {
                                    "$ref": "https://raw.githubusercontent.com/izacsc/ttalk-standard-message/CustomerShippingAddress/v1/1_003/jsonschema/schemas/CustomerShippingAddress_1_003.json#/definitions/PagedCustomerShippingAddress"
                                }
                            }
                        }
                    },
                    "400": {
                        "description": "erro no momento da requisição",
                        "content": {
                            "application/json": {
                                "schema": {
                                    "$ref": "https://raw.githubusercontent.com/totvs/ttalk-standard-message/master/jsonschema/apis/types/totvsApiTypesBase.json#/definitions/ErrorModel"
                                }
                            }
                        }
                    }
                }
            },
            "post": {
                "tags": [
                    "CustomerShippingAddress"
                ],
                "summary": "Inclui um Endereço de Entrega do Cliente",
                "description": "Inclui um Endereço de Entrega do Cliente conforme dados enviados na requisição.",
                "operationId": "postCustomerShippingAddress",
                "x-totvs": {
                    "productInformation": [
                        {
                            "product": "protheus",
                            "avaliable": true,
                            "note": "Este verbo esta disponivel com os parametros Authorization e Fields",
                            "minimalVersion": "12.1.21"
                        }
                    ]
                },
                "parameters": [
                    {
                        "$ref": "https://raw.githubusercontent.com/totvs/ttalk-standard-message/master/jsonschema/apis/types/totvsApiTypesBase.json#/parameters/Authorization"
                    },
                    {
                        "$ref": "https://raw.githubusercontent.com/totvs/ttalk-standard-message/master/jsonschema/apis/types/totvsApiTypesBase.json#/parameters/Fields"
                    }
                ],
                "requestBody": {
                    "content": {
                        "application/json": {
                            "schema": {
                                "$ref": "https://raw.githubusercontent.com/izacsc/ttalk-standard-message/CustomerShippingAddress/v1/1_003/jsonschema/schemas/CustomerShippingAddress_1_003.json#/definitions/CustomerShippingAddressInfo"
                            }
                        }
                    },
                    "description": "Endereço de Entrega do Cliente a ser incluida"
                },
                "responses": {
                    "200": {
                        "description": "operação realizada com sucesso",
                        "content": {
                            "application/json": {
                                "schema": {
                                    "$ref": "https://raw.githubusercontent.com/izacsc/ttalk-standard-message/CustomerShippingAddress/v1/1_003/jsonschema/schemas/CustomerShippingAddress_1_003.json#/definitions/PagedCustomerShippingAddress"
                                }
                            }
                        }
                    },
                    "400": {
                        "description": "erro no momento da Inclusão",
                        "content": {
                            "application/json": {
                                "schema": {
                                    "$ref": "https://raw.githubusercontent.com/totvs/ttalk-standard-message/master/jsonschema/apis/types/totvsApiTypesBase.json#/definitions/ErrorModel"
                                }
                            }
                        }
                    }
                }
            }
        },
        "/CustomerShippingAddress/{InternalId}": {
            "get": {
                "tags": [
                    "InternalId"
                ],
                "summary": "Retorna um Endereço de Entrega do Cliente específica de acordo com a chave de pesquisa",
                "description": "Retorna o Endereço de Entrega do Cliente de acordo com o ID de pesquisa",
                "operationId": "getInternalId",
                "x-totvs": {
                    "productInformation": [
                        {
                            "product": "protheus",
                            "avaliable": true,
                            "note": "o InternalId é composto por filial + Código do Endereço de Entrega do Cliente",
                            "minimalVersion": "12.1.21"
                        }
                    ]
                },
                "parameters": [
                    {
                        "$ref": "https://raw.githubusercontent.com/totvs/ttalk-standard-message/master/jsonschema/apis/types/totvsApiTypesBase.json#/parameters/Authorization"
                    },
                    {
                        "$ref": "https://raw.githubusercontent.com/totvs/ttalk-standard-message/master/jsonschema/apis/types/totvsApiTypesBase.json#/parameters/Order"
                    },
                    {
                        "$ref": "https://raw.githubusercontent.com/totvs/ttalk-standard-message/master/jsonschema/apis/types/totvsApiTypesBase.json#/parameters/Page"
                    },
                    {
                        "$ref": "https://raw.githubusercontent.com/totvs/ttalk-standard-message/master/jsonschema/apis/types/totvsApiTypesBase.json#/parameters/PageSize"
                    },
                    {
                        "$ref": "https://raw.githubusercontent.com/totvs/ttalk-standard-message/master/jsonschema/apis/types/totvsApiTypesBase.json#/parameters/Fields"
                    },
                    {
                        "$ref": "#/components/parameters/InternalId"
                    }
                ],
                "responses": {
                    "200": {
                        "description": "operação realizada com sucesso",
                        "content": {
                            "application/json": {
                                "schema": {
                                    "$ref": "https://raw.githubusercontent.com/izacsc/ttalk-standard-message/CustomerShippingAddress/v1/1_003/jsonschema/schemas/CustomerShippingAddress_1_003.json#/definitions/CustomerShippingAddressInfo"
                                }
                            }
                        }
                    },
                    "404": {
                        "description": "Endereço de Entrega do Cliente não localizado na base",
                        "content": {
                            "application/json": {
                                "schema": {
                                    "$ref": "https://raw.githubusercontent.com/totvs/ttalk-standard-message/master/jsonschema/apis/types/totvsApiTypesBase.json#/definitions/ErrorModel"
                                }
                            }
                        }
                    }
                }
            },
            "put": {
                "tags": [
                    "InternalId"
                ],
                "summary": "Altera um Endereço de Entrega do Cliente",
                "description": "Atualiza o Endereço de Entrega do Cliente conforme dados enviados na requisição",
                "operationId": "putInternalId",
                "x-totvs": {
                    "productInformation": [
                        {
                            "product": "protheus",
                            "avaliable": true,
                            "note": "Este verbo esta disponivel com os parametros Authorization, InternalId e Fields",
                            "minimalVersion": "12.1.21"
                        }
                    ]
                },
                "parameters": [
                    {
                        "$ref": "https://raw.githubusercontent.com/totvs/ttalk-standard-message/master/jsonschema/apis/types/totvsApiTypesBase.json#/parameters/Authorization"
                    },
                    {
                        "$ref": "https://raw.githubusercontent.com/totvs/ttalk-standard-message/master/jsonschema/apis/types/totvsApiTypesBase.json#/parameters/Fields"
                    },
                    {
                        "$ref": "#/components/parameters/InternalId"
                    }
                ],
                "requestBody": {
                    "content": {
                        "application/json": {
                            "schema": {
                                "$ref": "https://raw.githubusercontent.com/izacsc/ttalk-standard-message/CustomerShippingAddress/v1/1_003/jsonschema/schemas/CustomerShippingAddress_1_003.json#/definitions/CustomerShippingAddressInfo"
                            }
                        }
                    },
                    "description": "Endereço de Entrega do Cliente a ser alterada"
                },
                "responses": {
                    "200": {
                        "description": "operação realizada com sucesso",
                        "content": {
                            "application/json": {
                                "schema": {
                                    "$ref": "https://raw.githubusercontent.com/izacsc/ttalk-standard-message/CustomerShippingAddress/v1/1_003/jsonschema/schemas/CustomerShippingAddress_1_003.json#/definitions/CustomerShippingAddressInfo"
                                }
                            }
                        }
                    },
                    "400": {
                        "description": "erro no momento da alteração",
                        "content": {
                            "application/json": {
                                "schema": {
                                    "$ref": "https://raw.githubusercontent.com/totvs/ttalk-standard-message/master/jsonschema/apis/types/totvsApiTypesBase.json#/definitions/ErrorModel"
                                }
                            }
                        }
                    },
                    "404": {
                        "description": "Endereço de Entrega do Cliente não localizado",
                        "content": {
                            "application/json": {
                                "schema": {
                                    "$ref": "https://raw.githubusercontent.com/totvs/ttalk-standard-message/master/jsonschema/apis/types/totvsApiTypesBase.json#/definitions/ErrorModel"
                                }
                            }
                        }
                    }
                }
            },
            "delete": {
                "tags": [
                    "InternalId"
                ],
                "summary": "Exclui um Endereço de Entrega do Cliente",
                "description": "Exclui um Endereço de Entrega do Cliente conforme dados enviados na requisição.",
                "operationId": "deleteInternalId",
                "x-totvs": {
                    "productInformation": [
                        {
                            "product": "protheus",
                            "avaliable": true,
                            "note": "Este verbo esta disponivel com os parametros Authorization e Fields",
                            "minimalVersion": "12.1.21"
                        }
                    ]
                },
                "parameters": [
                    {
                        "$ref": "https://raw.githubusercontent.com/totvs/ttalk-standard-message/master/jsonschema/apis/types/totvsApiTypesBase.json#/parameters/Authorization"
                    },
                    {
                        "$ref": "#/components/parameters/InternalId"
                    }
                ],
                "responses": {
                    "200": {
                        "description": "operação realizada com sucesso",
                        "content": {
                            "application/json": {}
                        }
                    },
                    "400": {
                        "description": "erro no momento da exclusão",
                        "content": {
                            "application/json": {
                                "schema": {
                                    "$ref": "https://raw.githubusercontent.com/totvs/ttalk-standard-message/master/jsonschema/apis/types/totvsApiTypesBase.json#/definitions/ErrorModel"
                                }
                            }
                        }
                    },
                    "404": {
                        "description": "Endereço de Entrega do Cliente não localizado",
                        "content": {
                            "application/json": {
                                "schema": {
                                    "$ref": "https://raw.githubusercontent.com/totvs/ttalk-standard-message/master/jsonschema/apis/types/totvsApiTypesBase.json#/definitions/ErrorModel"
                                }
                            }
                        }
                    }
                }
            }
        }
    },
    "components": {
        "parameters": {
            "InternalId": {
                "name": "InternalId",
                "in": "path",
                "description": "Identificador Único da Endereço de Entrega do Cliente",
                "required": true,
                "example": "M SP 01 Q50308",
                "schema": {
                    "type": "string"
                },
                "x-totvs": {
                    "productInformation": [
                        {
                            "product": "protheus",
                            "avaliable": true,
                            "note": "Informar os campos Filial (DUL.DUL_FILIAL) e Código do Endereço de Entrega do Cliente (DUL.DUL_SEQEND)",
                            "minimalVersion": "12.1.21"
                        }
                    ]
                }
            }
        }
    }
}