{
    "openapi": "3.0.1",
    "servers": [
        {
            "description": "API para a entidade Grupo de Região (RegionGroups) para produtos TOTVS",
            "url": "http://{serverUrl}:{serverHttpPort}/api/tms/v1",
            "variables": {
                "serverUrl": {
                    "default":"localhost"
                },
                "serverHttpPort": {
                    "default":"8080"
                }
            }
        }
    ],
    "info": {
        "description": "API para a entidade Grupo de Região (RegionGroups) para produtos TOTVS",
        "version": "1.000",
        "title": "RegionGroups",
        "contact": {
            "name": "T-Talk",
            "url": "https://api.totvs.com.br",
            "email": "comiteintegracao@totvs.com.br"
        },
        "x-totvs": {
            "messageDocumentation":{
                "name": "RegionGroups",
                "description": "Cadastro de Grupo de Região",
                "segment": "TMS"
            },
            "productInformation":[
                {
                    "product":"protheus",
                    "contact":"supply.ml.log.tms-operacional@totvs.com.br",
                    "description":"Cadastro de Grupo de Região",
                    "adapter":"TMSA115I.prw"
                }
            ]
        }
    },
    "paths": {
        "/regiongroups": {
            "get": {
                "tags":[
                    "RegionGroups"
                ],
                "summary":"Retorna lista de Grupo de Região",
                "x-totvs":{
                    "productInformation":[
                        {
                            "product":"protheus",
                            "avaliable":true,
                            "note":"Este verbo está disponível com os parâmetros Authorization, Order, Page, PageSize e Fields",
                            "minimalVersion":"12.1.21"
                        }
                    ]
                },
                "description":"Retorna lista completa do Grupo de Região",
                "operationId":"getRegionGroups",
                "parameters": [
                    {
                        "$ref": "https://raw.githubusercontent.com/totvs/ttalk-standard-message/master/jsonschema/apis/types/totvsApiTypesBase.json#/parameters/Authorization"
                    },
                    {
                        "$ref": "https://raw.githubusercontent.com/totvs/ttalk-standard-message/master/jsonschema/apis/types/totvsApiTypesBase.json#/parameters/Order"
                    },
                    {
                        "$ref": "https://raw.githubusercontent.com/totvs/ttalk-standard-message/master/jsonschema/apis/types/totvsApiTypesBase.json#/parameters/Page"
                    },
                    {
                        "$ref": "https://raw.githubusercontent.com/totvs/ttalk-standard-message/master/jsonschema/apis/types/totvsApiTypesBase.json#/parameters/PageSize"
                    },
                    {
                        "$ref": "https://raw.githubusercontent.com/totvs/ttalk-standard-message/master/jsonschema/apis/types/totvsApiTypesBase.json#/parameters/Fields"
                    }
                ],
                "responses": {
                    "200": {
                        "description":"operação realizada com sucesso!",
                        "content":{
                            "application/json":{
                                "schema":{
                                    "$ref":"https://raw.githubusercontent.com/izacsc/ttalk-standard-message/RegionGroup/v1/1_000/jsonschema/schemas/RegionGroups_1_000.json#/definitions/PagedRegionGroups"
                                }
                            }
                        }
                    },
                    "400": {
                        "description": "erro no momento da requisição",
                        "content": {
                            "application/json": {
                                "schema": {
                                    "$ref": "https://raw.githubusercontent.com/totvs/ttalk-standard-message/master/jsonschema/apis/types/totvsApiTypesBase.json#/definitions/ErrorModel"
                                }
                            }
                        }
                    }
                }
            },
            "post": {
                "tags": [
                    "RegionGroups"
                ],
                "summary": "Inclui um Grupo de Região",
                "description": "Inclui um Grupo de Região conforme dados enviados na requisição.",
                "operationId": "postRegionGroups",
                "x-totvs": {
					"productInformation":[
						{
							"product":"protheus",
                            "avaliable":true,
                            "note": "Este verbo esta disponivel com os parametros Authorization e Fields",
                            "minimalVersion":"12.1.21"
						}
					]
                },
                "parameters": [
                    {
                        "$ref": "https://raw.githubusercontent.com/totvs/ttalk-standard-message/master/jsonschema/apis/types/totvsApiTypesBase.json#/parameters/Authorization"
                    },
                    {
                        "$ref": "https://raw.githubusercontent.com/totvs/ttalk-standard-message/master/jsonschema/apis/types/totvsApiTypesBase.json#/parameters/Fields"
                    }
                ],
                "requestBody": {
                    "content": {
                        "application/json": {
                            "schema": {
                                "$ref": "https://raw.githubusercontent.com/izacsc/ttalk-standard-message/RegionGroup/v1/1_000/jsonschema/schemas/RegionGroups_1_000.json#/definitions/RegionGroupsInfo"
                            }
                        }
                    },
                    "description": "Grupo de Região a ser incluida"
                },
                "responses" : {
                    "200": {
                        "description": "operação realizada com sucesso",
                        "content": {
                            "application/json": {
                                "schema": {
                                    "$ref":"https://raw.githubusercontent.com/izacsc/ttalk-standard-message/RegionGroup/v1/1_000/jsonschema/schemas/RegionGroups_1_000.json#/definitions/PagedRegionGroups"
                                }
                            }
                        }
                    },
                    "400": {
                        "description": "erro no momento da Inclusão",
                        "content": {
                            "application/json": {
                                "schema": {
                                    "$ref": "https://raw.githubusercontent.com/totvs/ttalk-standard-message/master/jsonschema/apis/types/totvsApiTypesBase.json#/definitions/ErrorModel"
                                }
                            }
                        }
                    }
                }
            }
        },
        "/regiongroups/{InternalId}": {
            "get": {
                "tags":[
                    "InternalId"
                ],
                "summary":"Retorna um Grupo de Região específica de acordo com a chave de pesquisa",
                "description": "Retorna o Grupo de Região de acordo com o ID de pesquisa",
                "operationId":"getCode",
                "x-totvs":{
                    "productInformation": [
                        {
                            "product":"protheus",
                            "avaliable":true,
                            "note":"o Code é composto por filial + Código do Grupo de Região",
                            "minimalVersion":"12.1.21"
                        }
                    ]
                },
                "parameters": [
                    {
                        "$ref": "https://raw.githubusercontent.com/totvs/ttalk-standard-message/master/jsonschema/apis/types/totvsApiTypesBase.json#/parameters/Authorization"
                    },
                    {
						"$ref": "https://raw.githubusercontent.com/totvs/ttalk-standard-message/master/jsonschema/apis/types/totvsApiTypesBase.json#/parameters/Order"
                    },
                    {
						"$ref":"https://raw.githubusercontent.com/totvs/ttalk-standard-message/master/jsonschema/apis/types/totvsApiTypesBase.json#/parameters/Page"
                    },
                    {
                        "$ref": "https://raw.githubusercontent.com/totvs/ttalk-standard-message/master/jsonschema/apis/types/totvsApiTypesBase.json#/parameters/PageSize"
                    },
                    {
                        "$ref": "https://raw.githubusercontent.com/totvs/ttalk-standard-message/master/jsonschema/apis/types/totvsApiTypesBase.json#/parameters/Fields"
                    },
                    {
                        "$ref": "#/components/parameters/InternalId"
                    }
                ],
                "responses": {
                    "200": {
                        "description": "operação realizada com sucesso",
                        "content": {
                            "application/json": {
                                "schema": {
                                    "$ref":"https://raw.githubusercontent.com/izacsc/ttalk-standard-message/RegionGroup/v1/1_000/jsonschema/schemas/RegionGroups_1_000.json#/definitions/RegionGroupsInfo"
                                }
                            }
                        }
                    },
                    "404": {
                        "description": "Grupo de Região não localizado na base",
                        "content": {
                            "application/json": {
                                "schema": {
                                    "$ref": "https://raw.githubusercontent.com/totvs/ttalk-standard-message/master/jsonschema/apis/types/totvsApiTypesBase.json#/definitions/ErrorModel"
                                }
                            }
                        }
                    }
                }
            },
            "put":{
                "tags":[
                    "Code"
                ],
                "summary":"Altera um Grupo de Região",
                "description":"Atualiza o Grupo de Região conforme dados enviados na requisição",
                "operationId":"putCode",
                "x-totvs": {
                    "productInformation": [
                        {
                            "product":"protheus",
                            "avaliable":true,
                            "note": "Este verbo esta disponivel com os parametros Authorization, Code e Fields",
                            "minimalVersion":"12.1.21"
                        }
                    ]
                },
                "parameters": [
                    {
                        "$ref": "https://raw.githubusercontent.com/totvs/ttalk-standard-message/master/jsonschema/apis/types/totvsApiTypesBase.json#/parameters/Authorization"
                    },
                    {
                        "$ref": "https://raw.githubusercontent.com/totvs/ttalk-standard-message/master/jsonschema/apis/types/totvsApiTypesBase.json#/parameters/Fields"
                    },
                    {
                        "$ref": "#/components/parameters/InternalId"
                    }
                ],
                "requestBody": {
                    "content": {
                        "application/json": {
                            "schema": {
                                "$ref": "https://raw.githubusercontent.com/izacsc/ttalk-standard-message/RegionGroup/v1/1_000/jsonschema/schemas/RegionGroups_1_000.json#/definitions/RegionGroupsInfo"
                            }
                        }
                    },
                    "description": "Grupo de Região a ser alterada"
                },
                "responses": {
                    "200": {
                        "description": "operação realizada com sucesso",
                        "content": {
                            "application/json": {
                                "schema": {
                                    "$ref":"https://raw.githubusercontent.com/izacsc/ttalk-standard-message/RegionGroup/v1/1_000/jsonschema/schemas/RegionGroups_1_000.json#/definitions/RegionGroupsInfo"
                                }
                            }
                        }
                    },
                    "400": {
                        "description": "erro no momento da alteração",
                        "content": {
                            "application/json": {
                                "schema": {
                                    "$ref": "https://raw.githubusercontent.com/totvs/ttalk-standard-message/master/jsonschema/apis/types/totvsApiTypesBase.json#/definitions/ErrorModel"
                                }
                            }
                        }
                      },
                    "404": {
                        "description": "Grupo de Região não localizada",
                        "content": {
                            "application/json": {
                                "schema": {
                                    "$ref": "https://raw.githubusercontent.com/totvs/ttalk-standard-message/master/jsonschema/apis/types/totvsApiTypesBase.json#/definitions/ErrorModel"
                                }
                            }
                        }
                    }
                }
            },
            "delete":{
                "tags":[
                    "Code"
                ],
                "summary":"Exclui um Grupo de Região",
                "description":"Exclui um Grupo de Região conforme dados enviados na requisição.",
                "operationId":"deleteCode",
                "x-totvs": {
                    "productInformation": [
                        {
                            "product":"protheus",
                            "avaliable":true,
                            "note": "Este verbo esta disponivel com os parametros Authorization e Fields",
                            "minimalVersion":"12.1.21"
                        }
                    ]
                },
                "parameters": [
                    {
                        "$ref": "https://raw.githubusercontent.com/totvs/ttalk-standard-message/master/jsonschema/apis/types/totvsApiTypesBase.json#/parameters/Authorization"
                    },
                    {
                        "$ref": "#/components/parameters/InternalId"
                    }
                ],
                "responses": {
                    "200": {
                        "description": "operação realizada com sucesso",
                        "content": {
                            "application/json": {
                            }
                        }
                    },
                    "400": {
                        "description": "erro no momento da exclusãoo",
                        "content": {
                            "application/json": {
                                "schema": {
                                    "$ref": "https://raw.githubusercontent.com/totvs/ttalk-standard-message/master/jsonschema/apis/types/totvsApiTypesBase.json#/definitions/ErrorModel"
                                }
                            }
                        }
                      },
                    "404": {
                        "description": "Grupo de Região não localizada",
                        "content": {
                            "application/json": {
                                "schema": {
                                    "$ref":"https://raw.githubusercontent.com/totvs/ttalk-standard-message/master/jsonschema/apis/types/totvsApiTypesBase.json#/definitions/ErrorModel"
                                }
                            }
                        }
                    }
                }
            }
        }
    },
    "components": {
        "parameters": {
            "InternalId":{
                "name": "InternalId",
                "in": "path",
                "description":"Identificador Único da Grupo de Região",
                "required": true,
                "example": "M SP 01 Q50308",
                "schema":{
                    "type": "string"
                },
                "x-totvs": {
					"productInformation":[
						{
							"product":"protheus",
                            "avaliable":true,
                            "note": "Informar os campos Filial (DUY.DUY_FILIAL) e Código do Grupo de Região (DUY.DUY_GRPVEN)",
                            "minimalVersion":"12.1.21"
						}
					]
                }
            }
        }
    }
}