B5U_CODIGO$B5U_DESCRI
1$Dispor de área física e instalações compatíveis com as normas do Ministério da Saúde (RDC 50 e complementares) e adequadas para o acolhimento e atendimento especializado aos portadores de danos e/ou agravos específicos em situação de urgência/emergência.
2$Possuir os seguintes recursos tecnológicos mínimos e indispensáveis – propedêuticos e/ou terapêuticos dentro da própria estrutura do hospital, disponível 24 horas: análises clínicas laboratoriais, eletrocardiografia e radiologia convencional (exceto para hospitais especializados que devem possuir recursos específicos para atendimento da sua especialidade). Obrigatório atender ao nível anterior.
3$Possuir recursos tecnológicos e humanos adequados para o atendimento das urgências/emergências de natureza clínica e cirúrgica, nas áreas de clínica médica e/ou pediatria e/ou traumato-ortopedia e/ou cardiologia e/ou ginecologia-obstetrícia e/ou especialidade do hospital. Obrigatório atender aos níveis anteriores.
4$Serviço de urgência e emergência possuir, durante 24 horas, sete dias por semana, os seguintes profissionais médicos em plantão presencial: médico clínico geral e/ou pediatra e/ou ginecologista-obstetra e/ou cirurgião geral e/ou traumato-ortopedista e/ou anestesiologista e/ou especialista do hospital, quando se tratar de recurso especializado. Obrigatório atender aos níveis anteriores.
5$Contar com Responsável Técnico médico, com Título de Especialista em sua área de atuação profissional, reconhecido pelo Conselho Federal de Medicina ou com Certificado de Residência Médica em sua especialidade emitido por Programa de Residência Médica reconhecido pelo MEC. Obrigatório atender aos níveis anteriores.
6$Equipe Médica composta por médicos em quantitativo suficiente para o atendimento dos serviços nas 24 horas do dia, para atendimento de urgências/emergências e todas as atividades dele decorrentes. Obrigatório atender aos níveis anteriores.
7$Equipe de enfermagem com coordenação de enfermagem (01 (um) enfermeiro coordenador), enfermeiros, técnicos de enfermagem e auxiliares de enfermagem em quantitativo suficiente para o atendimento dos serviços nas 24 horas do dia, para atendimento de urgências/emergências e todas as atividades dele decorrentes. Obrigatório atender aos níveis anteriores.
8$Além do anterior, disponibilizar recursos tecnológicos instalados dentro ou fora da estrutura ambulatório-hospitalar da Unidade. Neste caso, a referência deve ser devidamente formalizada de acordo com o que estabelece a Portaria SAS nº 494, de 26 de agosto de 1999: endoscopia, ultrassonografia e banco de sangue. Obrigatório atender aos níveis anteriores.
9$Possuir, durante 24 horas, sete dias por semana, os seguintes profissionais médicos, em plantão presencial: anestesiologista, clínico geral, ginecologista-obstetra, cirurgião geral, pediatra e traumato-ortopedista. Obrigatório atender aos níveis anteriores.
10$Além dos anteriores, possuir os recursos tecnológicos mínimos e indispensáveis, propedêuticos e/ou terapêuticos para o atendimento das urgências/emergências, os seguintes recursos especializados, existentes na própria estrutura do hospital: Intensificador de Imagem, Unidade de Terapia Intensiva de Tipo II ou III. Obrigatório atender aos níveis anteriores.
11$Além dos anteriores, possuir, durante 24 horas, sete dias por semana, os seguintes profissionais médicos, em plantão presencial ou sobreaviso: hemodinamicista, intensivista, cardiologista, cirurgião pediátrico, cirurgião cardiovascular, ecocardiografista e radiologista. Obrigatório atender aos níveis anteriores.
12$Além dos anteriores, contar com o Serviço de Suporte e Acompanhamento Clínico que mantenha os serviços e profissionais nas seguintes áreas: Farmácia e Hemoterapia (dependendo do volume de atendimento, estes profissionais não precisam ser exclusivos da Unidade). Obrigatório atender aos níveis anteriores.
13$Possuir, em regime de sobreaviso, as demais especialidades médicas: endoscopista, hematologista, cirurgião vascular, broncoscopista, neurocirurgião, neuropediatra e cirurgião bucomaxilofacial. Obrigatório atender aos níveis anteriores.
14$Além dos anteriores, possuir os seguintes recursos tecnológicos, dentro ou fora da estrutura: Tomografia Computadorizada. Obrigatório atender aos níveis anteriores.
99$Prestador não possui serviço de urgência e emergência