BSD_CDAMBU;BSD_DSAMBU
001;ESPECIALIDADE                 
002;PEDIATRIA                     
003;CARDIOLOGIA                   
004;CLINICA MEDICA                
005;GINECOLOGIA E OBSTETRICIA     
006;ORTOPEDIA E TRAUMATOLOGIA     
007;NUTROLOGIA                    
008;PSICOLOGIA                    
009;TERAPIA OCUPACIONAL           
010;FONOAUDIOLOGIA                
011;ENDOCRINOLOGIA                
012;OFTALMOLOGIA                  
013;NEUROLOGIA