A1_COD;A1_LOJA;A1_NOME;A1_PESSOA;A1_NREDUZ;A1_TIPO;A1_NATUREZ;A1_MOEDALC;A1_NROCOM;A1_TMPVIS;A1_TMPSTD;A1_NROPAG;A1_TIPCLI;A1_RECCOFI;A1_RECCSLL;A1_RECPIS;A1_B2B;A1_CLICNV;A1_MSBLQL;A1_USADDA;A1_IPWEB;A1_ABATIMP;A1_RECIRRF
000001;01;PLANO DE SAUDE P FISICA;F;PLANO PF;F;PLANOSAUDE;2.00;22.00;00:00;00:00;4.00;1;N;N;N;2;0;2;2;;1;1
000002;01;PLANO DE SAUDE P JURIDICA;J;PLANO PJ;F;PLANOSAUDE;2.00;6.00;00:00;00:00;4.00;1;N;N;N;2;;2;2;;1;1
