417505;011;2018;001;01;FCA;02638115000131;TESTE PROG FUNDO COMUM ADM OPERADORA ATE O FINALLLLLLLLL3210;123121321.21;33322515112.58;1
417505;011;2018;001;01;FCA;532150;TESTE PROG FUNDO COMUM ADM OPERADORA ATE O FINALLLLLLLLL3210;123121321.21;33322515112.58;1
417505;011;2018;001;01;FCP;02638115000131;TESTE PROG FUNDO COMUM ADM OPERADORA ATE O FINALLLLLLLLL3210;123121321.21;33322515112.58;1
417505;011;2018;001;01;FCP;532150;TESTE PROG FUNDO COMUM ADM OPERADORA ATE O FINALLLLLLLLL3210;123121321.21;33322515112.58;1
